{
	"info": {
		"_postman_id": "86378760-5ad1-496c-a148-32231e819d24",
		"name": "CRUD propietarios",
		"schema": "https://schema.getpostman.com/json/collection/v2.1.0/collection.json"
	},
	"item": [
		{
			"name": "LISTAR propietarios",
			"request": {
				"method": "GET",
				"header": [],
				"url": {
					"raw": "http://localhost/apiembarcaciones/public/api/propietarios",
					"protocol": "http",
					"host": [
						"localhost"
					],
					"path": [
						"apiembarcaciones",
						"public",
						"api",
						"propietarios"
					]
				}
			},
			"response": []
		},
		{
			"name": "BORRAR propietario",
			"request": {
				"method": "DELETE",
				"header": [],
				"url": {
					"raw": "http://localhost/apiembarcaciones/public/api/propietarios/2",
					"protocol": "http",
					"host": [
						"localhost"
					],
					"path": [
						"apiembarcaciones",
						"public",
						"api",
						"propietarios",
						"2"
					]
				}
			},
			"response": []
		},
		{
			"name": "NUEVO propietario",
			"protocolProfileBehavior": {
				"disabledSystemHeaders": {}
			},
			"request": {
				"method": "POST",
				"header": [],
				"body": {
					"mode": "raw",
					"raw": "{\r\n        \"dni\" : \"12444666\",\r\n        \"apellido\" : \"Perez\",\r\n        \"nombre\" : \"Omar\",\r\n        \"fechaNacimiento\" : \"1965-01-18\",\r\n        \"mail\" : \"omarperez@gmail.com\",\r\n        \"telefono\" : \"2302665588\",\r\n        \"imagen\" : \"\",\r\n        \"created_at\" : null,\r\n        \"updated_at\" : null\r\n}",
					"options": {
						"raw": {
							"language": "json"
						}
					}
				},
				"url": {
					"raw": "http://localhost/apiembarcaciones/public/api/propietarios",
					"protocol": "http",
					"host": [
						"localhost"
					],
					"path": [
						"apiembarcaciones",
						"public",
						"api",
						"propietarios"
					]
				}
			},
			"response": []
		},
		{
			"name": "MODIFICAR propietario",
			"request": {
				"method": "PUT",
				"header": [],
				"body": {
					"mode": "raw",
					"raw": "{\r\n        \"dni\" : \"12444667\",\r\n        \"apellido\" : \"Pérez\",\r\n        \"nombre\" : \"Pedro Omar\",\r\n        \"fechaNacimiento\" : \"1988-01-18\",\r\n        \"mail\" : \"omarperez@gmail.com\",\r\n        \"telefono\" : \"2302665588\",\r\n        \"imagen\" : \"\"\r\n}",
					"options": {
						"raw": {
							"language": "json"
						}
					}
				},
				"url": {
					"raw": "http://localhost/apiembarcaciones/public/api/propietarios/4",
					"protocol": "http",
					"host": [
						"localhost"
					],
					"path": [
						"apiembarcaciones",
						"public",
						"api",
						"propietarios",
						"4"
					]
				}
			},
			"response": []
		}
	]
}